Joining several data frames with dplyr
…
Rows: 273
Columns: 5
$ country            <chr> "abkh", "abw", "afg", "ago", "aia", "akr_a_dhe", "a…
$ name               <chr> "Abkhazia", "Aruba", "Afghanistan", "Angola", "Angu…
$ main_religion_2008 <chr> NA, "christian", "muslim", "christian", "christian"…
$ income_3groups     <chr> NA, "high_income", "low_income", "middle_income", N…
$ world_4region      <chr> "europe", "americas", "asia", "africa", "americas",…

Preferred gapminder, intersection

dplyr::inner_join(x = gapminder_europe, y = geo_europe, 
                  by = c("country" = "name")) 

# A tibble: 29 × 7
   country  lifeExp    pop gdpPercap country.y main_religion_2008 income_3groups
   <chr>      <dbl>  <int>     <dbl> <chr>     <chr>              <chr>         
 1 Albania     76.4 3.60e6     5937. alb       muslim             middle_income 
 2 Austria     79.8 8.20e6    36126. aut       christian          high_income   
 3 Belgium     79.4 1.04e7    33693. bel       christian          high_income   
 4 Bosnia …    74.9 4.55e6     7446. bih       <NA>               middle_income 
 5 Bulgaria    73.0 7.32e6    10681. bgr       christian          middle_income 
 6 Croatia     75.7 4.49e6    14619. hrv       christian          high_income   
 7 Czech R…    76.5 1.02e7    22833. cze       christian          high_income   
 8 Denmark     78.3 5.47e6    35278. dnk       christian          high_income   
 9 Finland     79.3 5.24e6    33207. fin       christian          high_income   
10 France      80.7 6.11e7    30470. fra       christian          high_income   
# ℹ 19 more rows
…
Mind the quotes in the column names in by. This time they are mandatory.

There were 30 countries in gapminder_europe, but the resulting data frame has only 29 rows. One country was missing in geo_europe, although it is so much longer than gapminder_europe. We will find out later which. You can see an NA in the fourth row, 6th column. This has nothing to do with joining; it was like this in the original geo_europe data frame.

Look closely at the names of the columns. Can you see country and country.y? The former is from gapminder, the latter from geo_europe. Column names must remain unique, therefore dplyr adds suffixes to duplicate names. Typically, the duplicate column name from the x data frame gets the suffix .x and the other one .y. You can replace them with your own suffixes in the suffix argument. In this case, only the one from the y data frame got the suffix. This is because it was used as a by column. By default, the key column from y disappears and only the x key column stays. You can also fiddle with this in a dedicated argument keep. So, in this case, the x country column stayed, the paired name column from y vanished, and then dplyr spotted another country column among the columns inherited from y. The function is just written in such a way that it does only put the suffix on one, when the other one was used as key. Do not ponder on it, just remember.

Keep gapminder intact, no matter what.

One country gets NA in geo_europe columns.

dplyr::left_join(x = gapminder_europe, y = geo_europe,
                 by = c("country" = "name")) 

# A tibble: 30 × 7
   country  lifeExp    pop gdpPercap country.y main_religion_2008 income_3groups
   <chr>      <dbl>  <int>     <dbl> <chr>     <chr>              <chr>         
 1 Albania     76.4 3.60e6     5937. alb       muslim             middle_income 
 2 Austria     79.8 8.20e6    36126. aut       christian          high_income   
 3 Belgium     79.4 1.04e7    33693. bel       christian          high_income   
 4 Bosnia …    74.9 4.55e6     7446. bih       <NA>               middle_income 
 5 Bulgaria    73.0 7.32e6    10681. bgr       christian          middle_income 
 6 Croatia     75.7 4.49e6    14619. hrv       christian          high_income   
 7 Czech R…    76.5 1.02e7    22833. cze       christian          high_income   
 8 Denmark     78.3 5.47e6    35278. dnk       christian          high_income   
 9 Finland     79.3 5.24e6    33207. fin       christian          high_income   
10 France      80.7 6.11e7    30470. fra       christian          high_income   
# ℹ 20 more rows
…
dplyr::left_join(x = gapminder_europe, y = geo_europe,
                 by = c("country" = "name")) %>%
  filter(is.na(country.y))

# A tibble: 1 × 7
  country   lifeExp    pop gdpPercap country.y main_religion_2008 income_3groups
  <chr>       <dbl>  <int>     <dbl> <chr>     <chr>              <chr>         
1 United K…    79.4 6.08e7    33203. <NA>      <NA>               <NA>          

Focus on geo_europe

dplyr::right_join(x = gapminder_europe, y = geo_europe,
                 by = c("country" = "name")) 

# A tibble: 73 × 7
   country  lifeExp    pop gdpPercap country.y main_religion_2008 income_3groups
   <chr>      <dbl>  <int>     <dbl> <chr>     <chr>              <chr>         
 1 Albania     76.4 3.60e6     5937. alb       muslim             middle_income 
 2 Austria     79.8 8.20e6    36126. aut       christian          high_income   
 3 Belgium     79.4 1.04e7    33693. bel       christian          high_income   
 4 Bosnia …    74.9 4.55e6     7446. bih       <NA>               middle_income 
 5 Bulgaria    73.0 7.32e6    10681. bgr       christian          middle_income 
 6 Croatia     75.7 4.49e6    14619. hrv       christian          high_income   
 7 Czech R…    76.5 1.02e7    22833. cze       christian          high_income   
 8 Denmark     78.3 5.47e6    35278. dnk       christian          high_income   
 9 Finland     79.3 5.24e6    33207. fin       christian          high_income   
10 France      80.7 6.11e7    30470. fra       christian          high_income   
# ℹ 63 more rows

Mismatches in geo_europe

dplyr::right_join(x = gapminder_europe, y = geo_europe,
                 by = c("country" = "name")) %>% 
  filter(is.na(lifeExp) | is.na(pop) | is.na(gdpPercap))

# A tibble: 44 × 7
   country   lifeExp   pop gdpPercap country.y main_religion_2008 income_3groups
   <chr>       <dbl> <int>     <dbl> <chr>     <chr>              <chr>         
 1 Abkhazia       NA    NA        NA abkh      <NA>               <NA>          
 2 Akrotiri…      NA    NA        NA akr_a_dhe <NA>               <NA>          
 3 Åland          NA    NA        NA ala       <NA>               <NA>          
 4 Andorra        NA    NA        NA and       christian          high_income   
 5 Armenia        NA    NA        NA arm       christian          middle_income 
 6 Antarcti…      NA    NA        NA ata       <NA>               <NA>          
 7 Azerbaij…      NA    NA        NA aze       muslim             middle_income 
 8 Belarus        NA    NA        NA blr       christian          middle_income 
 9 Channel …      NA    NA        NA chanisl   christian          high_income   
10 Czechosl…      NA    NA        NA cheslo    <NA>               <NA>          
# ℹ 34 more rows

We must look for a column that was not in geo_europe. The country column now is the result of country and name, so it will contain all countries from geo_europe but will have dropped United Kingdom, which was only in gapminder_europe. Any of the numeric columns from gapminder will help us though.

Get what you can

dplyr::full_join(x = gapminder_europe, y = geo_europe,
                 by = c("country" = "name"))

# A tibble: 74 × 7
   country  lifeExp    pop gdpPercap country.y main_religion_2008 income_3groups
   <chr>      <dbl>  <int>     <dbl> <chr>     <chr>              <chr>         
 1 Albania     76.4 3.60e6     5937. alb       muslim             middle_income 
 2 Austria     79.8 8.20e6    36126. aut       christian          high_income   
 3 Belgium     79.4 1.04e7    33693. bel       christian          high_income   
 4 Bosnia …    74.9 4.55e6     7446. bih       <NA>               middle_income 
 5 Bulgaria    73.0 7.32e6    10681. bgr       christian          middle_income 
 6 Croatia     75.7 4.49e6    14619. hrv       christian          high_income   
 7 Czech R…    76.5 1.02e7    22833. cze       christian          high_income   
 8 Denmark     78.3 5.47e6    35278. dnk       christian          high_income   
 9 Finland     79.3 5.24e6    33207. fin       christian          high_income   
10 France      80.7 6.11e7    30470. fra       christian          high_income   
# ℹ 64 more rows
…
anti_join(x = gapminder_europe, y = geo_europe,
                 by = c("country" = "name"))

# A tibble: 1 × 4
  country        lifeExp      pop gdpPercap
  <fct>            <dbl>    <int>     <dbl>
1 United Kingdom    79.4 60776238    33203.

anti_join the other way round

anti_join( x = geo_europe, y = gapminder_europe,
                 by = c( "name" = "country"))

# A tibble: 44 × 4
   country   name                  main_religion_2008 income_3groups
   <chr>     <chr>                 <chr>              <chr>         
 1 abkh      Abkhazia              <NA>               <NA>          
 2 akr_a_dhe Akrotiri and Dhekelia <NA>               <NA>          
 3 ala       Åland                 <NA>               <NA>          
 4 and       Andorra               christian          high_income   
 5 arm       Armenia               christian          middle_income 
 6 ata       Antarctica            <NA>               <NA>          
 7 aze       Azerbaijan            muslim             middle_income 
 8 blr       Belarus               christian          middle_income 
 9 chanisl   Channel Islands       christian          high_income   
10 cheslo    Czechoslovakia        <NA>               <NA>          
# ℹ 34 more rows

anti_join: Filter rows of x that are not matched in y.

semi_join detects matches

semi_join( x = geo_europe, y = gapminder_europe,
                 by = c( "name" = "country"))

# A tibble: 29 × 4
   country name                   main_religion_2008 income_3groups
   <chr>   <chr>                  <chr>              <chr>         
 1 alb     Albania                muslim             middle_income 
 2 aut     Austria                christian          high_income   
 3 bel     Belgium                christian          high_income   
 4 bgr     Bulgaria               christian          middle_income 
 5 bih     Bosnia and Herzegovina <NA>               middle_income 
 6 che     Switzerland            christian          high_income   
 7 cze     Czech Republic         christian          high_income   
 8 deu     Germany                christian          high_income   
 9 dnk     Denmark                christian          high_income   
10 esp     Spain                  christian          high_income   
# ℹ 19 more rows
…
